%YAML 1.1
%TAG !u! tag:unity3d.com,2011:
--- !u!114 &11400000
MonoBehaviour:
  m_ObjectHideFlags: 0
  m_PrefabParentObject: {fileID: 0}
  m_PrefabInternal: {fileID: 0}
  m_GameObject: {fileID: 0}
  m_Enabled: 1
  m_EditorHideFlags: 0
  m_Script: {fileID: 11500000, guid: 498be6d1e88c68c4eb946aa4e7ee64de, type: 3}
  m_Name: h10
  m_EditorClassIdentifier: 
  Sprite: {fileID: 21300070, guid: 30d1645eee2ae7740ab27be1d2a90620, type: 3}
